Analysis
…
Adding main analysis file

1 Preparing data

1.1 Estimating dry heat loss at 30C and solar influx

1.1.1 Solar influx

Here we calculate solar influx and the temperature corrected heat loss for each experiment.

Solar influx (difference between heat loss with radiation on and off) is calculated as:

\[Solar\ influx \ (W/m^2) = heatflux_{(radiation)}- heatflux_{(no \ radiation)}\]

# A tibble: 59 × 7
   wig      wind wet_dry trial    on   off influx
   <fct>   <dbl> <fct>   <fct> <dbl> <dbl>  <dbl>
 1 Nude      0.3 wet     1      90.9 153.    61.9
 2 Nude      0.3 wet     2      86.7 151.    64.7
 3 Nude      1   wet     1     227.  254.    27.2
 4 Nude      2.5 wet     1     276.  288.    11.8
 5 Nude      2.5 wet     2     272.  289.    17.1
 6 LowCurv   0.3 wet     1      30    71.1   41.1
 7 LowCurv   0.3 wet     2      27.6  63.8   36.2
 8 LowCurv   1   wet     1      73.3 103.    29.8
 9 LowCurv   1   wet     2      80.9 103.    21.9
10 LowCurv   2.5 wet     1     138.  149.    11.9
# … with 49 more rows
…
Tina Lasisi

2022-01-08

A plot of solar influx shows an outlier in the wet experiments where the heat loss with solar radiation was somehow less than the heat loss without solar radiation. We will exclude this outlier.

1.1.2 Temperature correction (to 30 C)

For the dry heat loss experiments (measuring dry heat resistance), we had to run some experiments at different temperatures to create a large enough gradient between skin/surface temperature and ambient temperature. The manikin is only able to produce results by measuring heat loss, and at 0.3 m/s wind speed, we found that the straight hair and nude (no hair) conditions led to overheating of the manikin. Subsequently, we had to adjust the temperatures to create a temperature gradient.

We thus need to bring all the measurements of heat loss to the same temperature. As heat resistance is temperature independent, we can use this to calculate the expected heat loss at various temperatures. We estimate heat loss at 30C with the following calculation.

\[Heat\ loss (W/m^2)_{(30C\ no\ radiation)} = 5/heat\ resistance_{(no \ radiation)} \]

# A tibble: 36 × 5
   wig      wind wet_dry resistance trial
   <fct>   <dbl> <fct>        <dbl> <fct>
 1 Nude      0.3 dry          0.113 1    
 2 Nude      0.3 dry          0.112 2    
 3 Nude      0.3 dry          0.112 3    
 4 Nude      1   dry          0.099 1    
 5 Nude      1   dry          0.101 2    
 6 Nude      1   dry          0.101 3    
 7 Nude      2.5 dry          0.058 1    
 8 Nude      2.5 dry          0.056 2    
 9 Nude      2.5 dry          0.058 3    
10 LowCurv   0.3 dry          0.42  1    
# … with 26 more rows

# A tibble: 36 × 7
   wig      wind wet_dry trial influx resistance   off
   <fct>   <dbl> <fct>   <fct>  <dbl>      <dbl> <dbl>
 1 Nude      0.3 dry     1      175.       0.113  44.2
 2 Nude      0.3 dry     2      168.       0.112  44.6
 3 Nude      0.3 dry     3      176.       0.112  44.6
 4 Nude      1   dry     1      176        0.099  50.5
 5 Nude      1   dry     2      162.       0.101  49.5
 6 Nude      1   dry     3      171.       0.101  49.5
 7 Nude      2.5 dry     1      153.       0.058  86.2
 8 Nude      2.5 dry     2      169.       0.056  89.3
 9 Nude      2.5 dry     3      158.       0.058  86.2
10 LowCurv   0.3 dry     1       62.6      0.42   11.9
# … with 26 more rows

To calculate the heat loss at 30C with radiation, we subtract the solar influx from the temperature corrected heat loss:

\[Heat\ loss (W/m^2)_{(30C\ with\ radiation)}  = Heat\ loss (W/m^2)_{(30C\ no\ radiation)}- solar\ influx(W/m^2) \]

# A tibble: 36 × 5
   wig      wind wet_dry resistance trial
   <fct>   <dbl> <fct>        <dbl> <fct>
 1 Nude      0.3 dry          0.237 1    
 2 Nude      0.3 dry          0.224 2    
 3 Nude      0.3 dry          0.234 3    
 4 Nude      1   dry          0.324 1    
 5 Nude      1   dry          0.292 2    
 6 Nude      1   dry          0.318 3    
 7 Nude      2.5 dry          0.088 1    
 8 Nude      2.5 dry          0.089 2    
 9 Nude      2.5 dry          0.091 3    
10 LowCurv   0.3 dry          1.46  1    
# … with 26 more rows

# A tibble: 36 × 7
   wig      wind wet_dry trial influx   off     on
   <fct>   <dbl> <fct>   <fct>  <dbl> <dbl>  <dbl>
 1 Nude      0.3 dry     1      175.   44.2 -131. 
 2 Nude      0.3 dry     2      168.   44.6 -124. 
 3 Nude      0.3 dry     3      176.   44.6 -131. 
 4 Nude      1   dry     1      176    50.5 -125. 
 5 Nude      1   dry     2      162.   49.5 -113. 
 6 Nude      1   dry     3      171.   49.5 -122. 
 7 Nude      2.5 dry     1      153.   86.2  -66.7
 8 Nude      2.5 dry     2      169.   89.3  -79.9
 9 Nude      2.5 dry     3      158.   86.2  -72.2
10 LowCurv   0.3 dry     1       62.6  11.9  -50.7
# … with 26 more rows

# A tibble: 94 × 7
   wig      wind wet_dry trial influx   off     on
   <fct>   <dbl> <fct>   <fct>  <dbl> <dbl>  <dbl>
 1 Nude      0.3 dry     1      175.   44.2 -131. 
 2 Nude      0.3 dry     2      168.   44.6 -124. 
 3 Nude      0.3 dry     3      176.   44.6 -131. 
 4 Nude      1   dry     1      176    50.5 -125. 
 5 Nude      1   dry     2      162.   49.5 -113. 
 6 Nude      1   dry     3      171.   49.5 -122. 
 7 Nude      2.5 dry     1      153.   86.2  -66.7
 8 Nude      2.5 dry     2      169.   89.3  -79.9
 9 Nude      2.5 dry     3      158.   86.2  -72.2
10 LowCurv   0.3 dry     1       62.6  11.9  -50.7
# … with 84 more rows

# A tibble: 282 × 6
   wig    wind wet_dry trial var    heatloss
   <fct> <dbl> <fct>   <fct> <chr>     <dbl>
 1 Nude    0.3 dry     1     influx    175. 
 2 Nude    0.3 dry     1     off        44.2
 3 Nude    0.3 dry     1     on       -131. 
 4 Nude    0.3 dry     2     influx    168. 
 5 Nude    0.3 dry     2     off        44.6
 6 Nude    0.3 dry     2     on       -124. 
 7 Nude    0.3 dry     3     influx    176. 
 8 Nude    0.3 dry     3     off        44.6
 9 Nude    0.3 dry     3     on       -131. 
10 Nude    1   dry     1     influx    176  
# … with 272 more rows
…
